{
  "project_info": {
    "project_number": "784669296602",
    "project_id": "login-register-d24ea",
    "storage_bucket": "login-register-d24ea.appspot.com"
  },
  "client": [
    {
      "client_info": {
        "mobilesdk_app_id": "1:784669296602:android:62c579d598fc5f779722e3",
        "android_client_info": {
          "package_name": "com.example.flutter_application_1"
        }
      },
      "oauth_client": [
        {
          "client_id": "784669296602-dc5j5spl1lcmkqr0181p6m2ujb00gtv4.apps.googleusercontent.com",
          "client_type": 3
        }
      ],
      "api_key": [
        {
          "current_key": "AIzaSyA86cD_PE4PT5-BCr1deqtofLffQmfa5bY"
        }
      ],
      "services": {
        "appinvite_service": {
          "other_platform_oauth_client": [
            {
              "client_id": "784669296602-dc5j5spl1lcmkqr0181p6m2ujb00gtv4.apps.googleusercontent.com",
              "client_type": 3
            }
          ]
        }
      }
    }
  ],
  "configuration_version": "1"
}